{
  "nodes": ["127.0.0.1", "127.0.0.2", "127.0.0.3"],
  "keyspace": "skedEx",
  "tables": [
    "Aliquots": {
      "aliquot_id": "bigint",
      "experiment_id": "text",
      "subject_id": "int",
      "specimen_type": "text",
      "sample_source": "text",
      "collection_type": "text",
      "timepoint": "text",
      "creation_date": "date",
      "core_processing": "text",
      "name": "text",
      "sample_name": "text",
      "aliquot_type": "text",
      "aliquot_desc": "text",
      "description": "text",
      "is_root": "tinyint",
      "is_terminal": "tinyint",
      "is_reference": "tinyint",
      "parent_aliquot_id": "bigint",
      "root_aliquot_id": "bigint",
      "modification_date": "date"
    },
    "Channels": {
      "channel_id": "int",
      "protocol_app_id": "bigint",
      "aliquot_id": "bigint",
      "name": "text",
      "description": "text"
    },
    "Experiments": {
      "experiment_id": "text",
      "project_id": "int",
      "name": "text",
      "description": "text",
      "infection_type": "text",
      "experiment_type": "text",
      "host_species": "text",
      "parasite_species": "text",
      "infection_treatment": "text",
      "start_date": "date",
      "end_date": "date",
      "modification_date": "date"
    },
    "PaMetadata": {
      "pa_metadata_id": "bigint",
      "protocol_app_id": "bigint",
      "ontology_term_id": "bigint",
      "field": "text",
      "value": "text",
      "pair_id": "int"
    },
    "Projects": {
      "project_id": "smallint",
      "name": "text",
      "description": "text"
    },
    "ProtocolApplications": {
      "protocol_app_id": "bigint",
      "protocol_id": "int",
      "description": "text",
      "protocol_app_date": "date",
      "modification_date": "date"
    },
    "Protocols": {
      "protocol_id": "int",
      "name": "text",
      "description": "text",
      "modification_date": "date"
    },
    "Results": {
      "protocol_app_id": "bigint",
      "aliquot_id": "bigint",
      "field": "text",
      "value": "double",
      "modification_date": "date"
    },
    "Subjects": {
      "subject_id": "int",
      "name": "text",
      "description": "text",
      "subject_type": "text",
      "country_of_birth": "text",
      "country_of_origin": "text",
      "taxon_id": "int",
      "date_of_birth": "text",
      "source_id": "text",
      "mhc_class": "text",
      "modification_date": "date"
    },
    "Taxa": {
      "taxon_id": "int",
      "ncbi_tax_id": "int",
      "name": "text",
      "parent_id": "int",
      "rank": "text",
      "modification_date": "date"
    },
    "TermOntologies": {
      "ontology_term_id": "bigint",
      "external_source_id": "int",
      "name": "text",
      "definition": "text",
      "unit": "text",
      "category": "text",
      "is_user_defined": "tinyint",
      "uri": "text",
      "modification_date": "date",
      "metadata_registry_id": "int"
    }
  ]
}
